…
# Internal data for the European Social Survey round 5
# containing different ISCO variables
ess %>%
  mutate(
    isei = isco68_to_isei(isco68),
    egp = isco68_to_egp(isco68, self_employed, emplno),
    egp_labels = isco68_to_egp(isco68, self_employed, emplno, label = TRUE)
  )
#> # A tibble: 56,752 × 8
#>    isco68 isco88 isco08 emplno self_employed  isei   egp egp_labels            
#>     <dbl>  <dbl>  <dbl>  <dbl>         <dbl> <dbl> <dbl> <chr>                 
#>  1    140   3111     NA      0             0    NA    NA <NA>                  
#>  2   3210   3431   4120      0             0    55     3 'routine nonmanual'   
#>  3   2119   1210   1120      0             0    69     1 'higher controllers'  
#>  4   1320   2320   2330      0             0    71     2 'lo controllers'      
#>  5   8550   7137   7411      0             0    40     8 'skilled manual'      
#>  6   5401   5131   5311      0             0    24     9 'semi-unskilld manual'
#>  7     NA     NA     NA      0             0    NA    NA <NA>                  
#>  8   1593   2419   2432      0             0    66     2 'lo controllers'      
#>  9   1930   3460   2635      0             0    54     2 'lo controllers'      
#> 10   1950   2444   2643      0             0    54     2 'lo controllers'      
#> # … with 56,742 more rows
```
…
