Translate 4-digit ISCO88 to ORDC — isco88_to_ordc • DIGCLASS
…
For more information on this class schema, please check the references below:
Hansen, M. N., & Toft, M. (2021). Wealth Accumulation and Opportunity Hoarding: Class-Origin Wealth Gaps over a Quarter of a Century in a Scandinavian Country. American Sociological Review, 86(4), 603–638. https://doi.org/10.1177/00031224211020012

    Examples

library(dplyr)

# isco88
ess %>%
  transmute(
    isco88,
    ordc = isco88_to_ordc(isco88, label = FALSE),
    ordc_label = isco88_to_ordc(isco88, label = TRUE)
  )
#> # A tibble: 48,285 × 3
#>    isco88 ordc  ordc_label                  
#>    <chr>  <chr> <chr>                       
#>  1 5169   11    Unskilled working class     
#>  2 1222   6     Upper-middle class: economic
#>  3 8120   10    Skilled working class       
#>  4 7141   10    Skilled working class       
#>  5 6111   12    Primary-sector employees    
#>  6 6111   12    Primary-sector employees    
#>  7 9313   11    Unskilled working class     
#>  8 1221   6     Upper-middle class: economic
#>  9 1221   6     Upper-middle class: economic
#> 10 6111   12    Primary-sector employees    
#> # ℹ 48,275 more rows
…
