Translate 3-digit ISCO08/ISCO88COM to MSEC — isco08_to_msec • DIGCLASS
…
      isco08_three,
      is_supervisor,
      self_employed,
      emplno,
      label = TRUE
    ),
    msec = isco08_to_msec(
      isco08_three,
      is_supervisor,
      self_employed,
      emplno,
      label = FALSE
    )
  )
#> # A tibble: 56,752 × 3
#>    isco08_three msec_label                                      msec 
#>    <chr>        <chr>                                           <chr>
#>  1 3110         Lower Management Employees                      14   
#>  2 4120         General Clerks                                  51   
#>  3 1120         Higher Management Employees                     13   
#>  4 2330         Primary and Secondary Education Professionals   25   
#>  5 7410         Skilled Labor Supervisors                       60   
#>  6 5310         Personal Care Employees                         53   
#>  7 NA           NA                                              NA   
#>  8 2430         Higher Management Employees                     13   
#>  9 2630         Professionals N.E.C. (Not Elsewhere Classified) 20   
#> 10 2640         Social Professionals                            24   
#> # ℹ 56,742 more rows
…
      isco88com_three,
      is_supervisor,
      self_employed,
      emplno,
      label = TRUE
    ),
    msec = isco88com_to_msec(
      isco88com_three,
      is_supervisor,
      self_employed,
      emplno,
      label = FALSE
    )
  )
#> # A tibble: 56,752 × 3
#>    isco88com_three msec_label                                    msec 
#>    <chr>           <chr>                                         <chr>
#>  1 3110            Lower Management Employees                    14   
#>  2 3430            General Clerks                                51   
#>  3 1210            Higher Management Employees                   13   
#>  4 2320            Primary and Secondary Education Professionals 25   
#>  5 7130            Skilled Labor Supervisors                     60   
#>  6 5130            Personal Care Employees                       53   
#>  7 NA              NA                                            NA   
#>  8 2410            Higher Management Employees                   13   
#>  9 3460            Legal and Social Associate Professionals      34   
#> 10 2440            Social Professionals                          24   
#> # ℹ 56,742 more rows
…
