Translate 4-digit ISCO88/ISCO68 to EGP11/EGP7/EGP5/EGP3 — isco88_to_egp • DIGCLASS
…
Goldthorpe JH (2007) Social class and the differentiation of employment contracts. In: Goldthorpe JH (ed.) On Sociology: Volume Two. Stanford: Stanford University Press,101–124.

    Examples

library(dplyr)

# isco88
ess %>% transmute(
  isco88,
  egp11 = isco88_to_egp(isco88, self_employed, emplno, label = FALSE),
  egp7 = isco88_to_egp(isco88, self_employed, emplno, n_classes = 7, label = FALSE),
  egp5 = isco88_to_egp(isco88, self_employed, emplno, n_classes = 5, label = FALSE),
  egp3 = isco88_to_egp(isco88, self_employed, emplno, n_classes = 3, label = FALSE),
)
#> # A tibble: 48,285 × 5
#>    isco88 egp11 egp7  egp5  egp3 
#>    <chr>  <chr> <chr> <chr> <chr>
#>  1 5169   9     6     4     3    
#>  2 1222   1     1     1     1    
#>  3 8120   8     5     4     3    
#>  4 7141   8     5     4     3    
#>  5 6111   10    7     5     3    
#>  6 6111   10    7     5     3    
#>  7 9313   9     6     4     3    
#>  8 1221   11    7     3     2    
#>  9 1221   11    7     3     2    
#> 10 6111   10    7     5     3    
#> # ℹ 48,275 more rows

# isco68
ess %>% transmute(
  isco68,
  egp11 = isco68_to_egp(isco68, self_employed, emplno, label = FALSE),
  egp7 = isco68_to_egp(isco68, self_employed, emplno, n_classes = 7, label = FALSE),
  egp5 = isco68_to_egp(isco68, self_employed, emplno, n_classes = 5, label = FALSE),
  egp3 = isco68_to_egp(isco68, self_employed, emplno, n_classes = 3, label = FALSE)
)
#> # A tibble: 48,285 × 5
#>    isco68 egp11 egp7  egp5  egp3 
#>    <chr>  <chr> <chr> <chr> <chr>
#>  1 5890   6     4     2     1    
#>  2 2120   2     2     1     1    
#>  3 7200   8     5     4     3    
#>  4 9310   8     5     4     3    
#>  5 6220   10    7     5     3    
#>  6 6220   10    7     5     3    
#>  7 9595   9     6     4     3    
#>  8 6000   11    7     3     2    
#>  9 6000   11    7     3     2    
#> 10 6220   10    7     5     3    
#> # ℹ 48,275 more rows
…
