Translate 3-digit ISCO08/ISCO88COM to ESEC-MP — isco08_to_esec_mp • DIGCLASS
…
      isco08_three,
      is_supervisor,
      self_employed,
      emplno,
      label = FALSE
    ),
    esec_label = isco08_to_esec(
      isco08_three,
      is_supervisor,
      self_employed,
      emplno,
      label = TRUE
    )
  )
#> # A tibble: 48,285 × 3
#>    isco08_three esec  esec_label                                                
#>    <chr>        <chr> <chr>                                                     
#>  1 5410         3     'Intermediate occupations'                                
#>  2 1320         2     'Lower mgrs/professionals, higher supervisory/technicians'
#>  3 3130         6     'Lower supervisors and technicians'                       
#>  4 7130         6     'Lower supervisors and technicians'                       
#>  5 6110         8     'Lower technical'                                         
#>  6 6110         6     'Lower supervisors and technicians'                       
#>  7 9310         6     'Lower supervisors and technicians'                       
#>  8 1310         2     'Lower mgrs/professionals, higher supervisory/technicians'
#>  9 1310         5     'Small employers and self-employed (agriculture)'         
#> 10 6110         6     'Lower supervisors and technicians'                       
#> # ℹ 48,275 more rows
…
      self_employed,
      emplno,
      full_method = TRUE,
      label = FALSE
    ),
    esec_label = isco88com_to_esec_mp(
      isco88com_three,
      is_supervisor,
      self_employed,
      emplno,
      full_method = TRUE,
      label = TRUE
    )
  )
#> # A tibble: 48,285 × 3
#>    isco88com_three esec  esec_label                      
#>    <chr>           <chr> <chr>                           
#>  1 5160            5     Higher-grade White-collar       
#>  2 1220            3     Lower Manager                   
#>  3 8120            11    Routine                         
#>  4 7140            8     Higher-grade Blue-collar        
#>  5 6110            10    Lower-grade Blue-collar         
#>  6 6110            8     Higher-grade Blue-collar        
#>  7 9310            8     Higher-grade Blue-collar        
#>  8 1220            3     Lower Manager                   
#>  9 1220            6     Self-employed and Small Employer
#> 10 6110            8     Higher-grade Blue-collar        
#> # ℹ 48,275 more rows
…
      self_employed,
      emplno,
      full_method = FALSE,
      label = FALSE
    ),
    esec_simple_label = isco88com_to_esec_mp(
      isco88com_three,
      is_supervisor,
      self_employed,
      emplno,
      full_method = FALSE,
      label = TRUE
    )
  )
#> # A tibble: 48,285 × 3
#>    isco88com_three esec_simple esec_simple_label                           
#>    <chr>           <chr>       <chr>                                       
#>  1 5160            9           Lower-grade White-collar                    
#>  2 1220            3           Lower Manager                               
#>  3 8120            11          Routine                                     
#>  4 7140            10          Lower-grade Blue-collar                     
#>  5 6110            7           Self-employed and Small Employer agriculture
#>  6 6110            7           Self-employed and Small Employer agriculture
#>  7 9310            11          Routine                                     
#>  8 1220            3           Lower Manager                               
#>  9 1220            3           Lower Manager                               
#> 10 6110            7           Self-employed and Small Employer agriculture
#> # ℹ 48,275 more rows
…
