Translate 3-digit ISCO08/ISCO88COM to ESEC — isco08_to_esec • DIGCLASS
…
      isco08_three,
      is_supervisor,
      self_employed,
      emplno,
      label = FALSE
    ),
    esec_label = isco08_to_esec(
      isco08_three,
      is_supervisor,
      self_employed,
      emplno,
      label = TRUE
    )
  )
#> # A tibble: 48,285 × 3
#>    isco08_three esec  esec_label                                                
#>    <chr>        <chr> <chr>                                                     
#>  1 5410         3     'Intermediate occupations'                                
#>  2 1320         2     'Lower mgrs/professionals, higher supervisory/technicians'
#>  3 3130         6     'Lower supervisors and technicians'                       
#>  4 7130         6     'Lower supervisors and technicians'                       
#>  5 6110         8     'Lower technical'                                         
#>  6 6110         6     'Lower supervisors and technicians'                       
#>  7 9310         6     'Lower supervisors and technicians'                       
#>  8 1310         2     'Lower mgrs/professionals, higher supervisory/technicians'
#>  9 1310         5     'Small employers and self-employed (agriculture)'         
#> 10 6110         6     'Lower supervisors and technicians'                       
#> # ℹ 48,275 more rows
…
      self_employed,
      emplno,
      label = TRUE,
      full_method = TRUE
    ),
    esec_no_label = isco88com_to_esec(
      isco88com_three,
      is_supervisor,
      self_employed,
      emplno,
      label = FALSE,
      full_method = TRUE
    )
  )
#> # A tibble: 48,285 × 3
#>    isco88com_three esec_label                                      esec_no_label
#>    <chr>           <chr>                                           <chr>        
#>  1 5160            'Intermediate occupations'                      3            
#>  2 1220            'Lower mgrs/professionals, higher supervisory/… 2            
#>  3 8120            'Routine'                                       9            
#>  4 7140            'Lower supervisors and technicians'             6            
#>  5 6110            'Lower technical'                               8            
#>  6 6110            'Lower supervisors and technicians'             6            
#>  7 9310            'Lower supervisors and technicians'             6            
#>  8 1220            'Lower mgrs/professionals, higher supervisory/… 2            
#>  9 1220            'Small employers and self-employed (non-agricu… 4            
#> 10 6110            'Lower supervisors and technicians'             6            
#> # ℹ 48,275 more rows
…
ess %>%
  transmute(
    isco88com_three,
    esec_simple = isco88com_to_esec(
      isco88com_three,
      label = FALSE,
      full_method = FALSE
    ),
    esec_simple_label = isco88com_to_esec(
      isco88com_three,
      label = TRUE,
      full_method = FALSE
    )
  )
#> # A tibble: 48,285 × 3
#>    isco88com_three esec_simple esec_simple_label                                
#>    <chr>           <chr>       <chr>                                            
#>  1 5160            7           'Lower sales and service'                        
#>  2 1220            2           'Lower mgrs/professionals, higher supervisory/te…
#>  3 8120            9           'Routine'                                        
#>  4 7140            8           'Lower technical'                                
#>  5 6110            5           'Small employers and self-employed (agriculture)'
#>  6 6110            5           'Small employers and self-employed (agriculture)'
#>  7 9310            9           'Routine'                                        
#>  8 1220            2           'Lower mgrs/professionals, higher supervisory/te…
#>  9 1220            2           'Lower mgrs/professionals, higher supervisory/te…
#> 10 6110            5           'Small employers and self-employed (agriculture)'
#> # ℹ 48,275 more rows
…
