Translate 4-digit ISCO88/ISCO68 to EGP-MP — isco88_to_egp_mp • DIGCLASS
…
      isco88,
      is_supervisor,
      self_employed,
      emplno,
      label = FALSE
    ),
    egp_mp_label = isco88_to_egp_mp(
      isco88,
      is_supervisor,
      self_employed,
      emplno,
      label = TRUE
    )
  )
#> # A tibble: 48,285 × 3
#>    isco88 egp_mp egp_mp_label            
#>    <chr>  <chr>  <chr>                   
#>  1 5169   11     VIIa Unskilled Worker   
#>  2 1222   1      Ia Higher Managers      
#>  3 8120   10     VI Skilled Worker       
#>  4 7141   10     VI Skilled Worker       
#>  5 6111   12     VIIb Farm Labor         
#>  6 6111   12     VIIb Farm Labor         
#>  7 9313   11     VIIa Unskilled Worker   
#>  8 1221   13     IVc Self-employed Farmer
#>  9 1221   13     IVc Self-employed Farmer
#> 10 6111   12     VIIb Farm Labor         
#> # ℹ 48,275 more rows
…
      isco68,
      is_supervisor,
      self_employed,
      emplno,
      label = FALSE
    ),
    egp_mp_label = isco68_to_egp_mp(
      isco68,
      is_supervisor,
      self_employed,
      emplno,
      label = TRUE
    )
  )
#> # A tibble: 48,285 × 3
#>    isco68 egp_mp egp_mp_label                       
#>    <chr>  <chr>  <chr>                              
#>  1 5890   8      IVb Self-employed with no employees
#>  2 2120   3      IIa Higher Professionals           
#>  3 7200   10     VI Skilled Worker                  
#>  4 9310   10     VI Skilled Worker                  
#>  5 6220   12     VIIb Farm Labor                    
#>  6 6220   12     VIIb Farm Labor                    
#>  7 9595   11     VIIa Unskilled Worker              
#>  8 6000   13     IVc Self-employed Farmer           
#>  9 6000   13     IVc Self-employed Farmer           
#> 10 6220   12     VIIb Farm Labor                    
#> # ℹ 48,275 more rows
…
