Translate 4-digit ISCO08/ISCO88 to OESCH16/OESCH8/OESCH5 — isco08_to_oesch • DIGCLASS
…
For more details, users can see the translation used in this package in all_schema$oesch16_to_oesch8 and all_schema$oesch16_to_oesch5. Moreover, the labels used can be found in all_labels$oesch16, all_labels$oesch8 and all_labels$oesch5.

    Examples

library(dplyr)

# isco08
ess %>%
  transmute(
    isco08,
    oesch16 = isco08_to_oesch(isco08, self_employed, emplno, label = FALSE),
    oesch8 = isco08_to_oesch(isco08, self_employed, emplno, n_classes = 8, label = FALSE),
    oesch5 = isco08_to_oesch(isco08, self_employed, emplno, n_classes = 5, label = FALSE),
  )
#> # A tibble: 48,285 × 4
#>    isco08 oesch16 oesch8 oesch5
#>    <chr>  <chr>   <chr>  <chr> 
#>  1 5414   4       2      3     
#>  2 1321   9       5      1     
#>  3 3135   6       3      2     
#>  4 7131   7       4      4     
#>  5 6111   7       4      4     
#>  6 6111   7       4      4     
#>  7 9313   8       4      5     
#>  8 1311   10      5      2     
#>  9 1311   3       2      3     
#> 10 6111   7       4      4     
#> # ℹ 48,275 more rows

# isco88
ess %>%
  transmute(
    isco88,
    oesch16 = isco88_to_oesch(isco88, self_employed, emplno, label = FALSE),
    oesch8 = isco88_to_oesch(isco88, self_employed, emplno, n_classes = 8, label = FALSE),
    oesch5 = isco88_to_oesch(isco88, self_employed, emplno, n_classes = 5, label = FALSE),
  )
#> # A tibble: 48,285 × 4
#>    isco88 oesch16 oesch8 oesch5
#>    <chr>  <chr>   <chr>  <chr> 
#>  1 5169   4       2      3     
#>  2 1222   9       5      1     
#>  3 8120   8       4      5     
#>  4 7141   7       4      4     
#>  5 6111   7       4      4     
#>  6 6111   7       4      4     
#>  7 9313   8       4      5     
#>  8 1221   9       5      1     
#>  9 1221   3       2      3     
#> 10 6111   7       4      4     
#> # ℹ 48,275 more rows
…
