Translates 4-digit ISCO88COM to WRIGHT. — isco88com_to_wright • DIGCLASS
…
      control_daily,
      type = "simple"
    ),
    wr_simple_label = isco88com_to_wright(
      isco88com,
      is_supervisor,
      self_employed,
      emplno,
      control_work,
      control_daily,
      type = "simple",
      label = TRUE
    )
  )
#> # A tibble: 48,285 × 3
#>    isco88com wr_simple wr_simple_label           
#>    <chr>     <chr>     <chr>                     
#>  1 5169      3         Self empl w/no empoyees   
#>  2 1222      7         Skilled manager/superv    
#>  3 8120      12        Low skilled workers       
#>  4 7141      7         Skilled manager/superv    
#>  5 6111      9         Skilled workers           
#>  6 6111      7         Skilled manager/superv    
#>  7 9313      10        Low skilled manager/superv
#>  8 1221      7         Skilled manager/superv    
#>  9 1221      2         Self empl w/1-9 employees 
#> 10 6111      7         Skilled manager/superv    
#> # ℹ 48,275 more rows
…
      control_daily,
      type = "decision-making"
    ),
    wr_decision_label = isco88com_to_wright(
      isco88com,
      is_supervisor,
      self_employed,
      emplno,
      control_work,
      control_daily,
      type = "decision-making",
      label = TRUE
    )
  )
#> # A tibble: 48,285 × 3
#>    isco88com wr_decision wr_decision_label        
#>    <chr>     <chr>       <chr>                    
#>  1 5169      3           Self empl w/no empoyees  
#>  2 1222      9           Skilled workers          
#>  3 8120      NA          NA                       
#>  4 7141      9           Skilled workers          
#>  5 6111      9           Skilled workers          
#>  6 6111      8           Skilled supervisors      
#>  7 9313      NA          NA                       
#>  8 1221      NA          NA                       
#>  9 1221      2           Self empl w/1-9 employees
#> 10 6111      NA          NA                       
#> # ℹ 48,275 more rows
…
      control_daily,
      type = "power-class"
    ),
    wr_power_label = isco88com_to_wright(
      isco88com,
      is_supervisor,
      self_employed,
      emplno,
      control_work,
      control_daily,
      type = "power-class",
      label = TRUE
    )
  )
#> # A tibble: 48,285 × 3
#>    isco88com wr_power wr_power_label     
#>    <chr>     <chr>    <chr>              
#>  1 5169      3        Self empl          
#>  2 1222      7        Skilled workers    
#>  3 8120      NA       NA                 
#>  4 7141      7        Skilled workers    
#>  5 6111      7        Skilled workers    
#>  6 6111      5        Skilled supervisors
#>  7 9313      NA       NA                 
#>  8 1221      NA       NA                 
#>  9 1221      2        Small Employers    
#> 10 6111      NA       NA                 
#> # ℹ 48,275 more rows
…
