Translate 3-digit ISCO88COM to ESEC — isco88com_to_esec • DIGCLASS
…
      isco88com_three,
      is_supervisor,
      self_employed,
      emplno,
      label = TRUE
    ),
    esec = isco88com_to_esec(
      isco88com_three,
      is_supervisor,
      self_employed,
      emplno,
      label = FALSE
    )
  )
#> # A tibble: 56,752 × 2
#>    esec_label                                                 esec 
#>    <chr>                                                      <chr>
#>  1 'Lower mgrs/professionals, higher supervisory/technicians' 2    
#>  2 'Intermediate occupations'                                 3    
#>  3 'Large employers, higher mgrs/professionals'               1    
#>  4 'Lower mgrs/professionals, higher supervisory/technicians' 2    
#>  5 'Lower supervisors and technicians'                        6    
#>  6 'Lower sales and service'                                  7    
#>  7 NA                                                         NA   
#>  8 'Large employers, higher mgrs/professionals'               1    
#>  9 'Intermediate occupations'                                 3    
#> 10 'Lower mgrs/professionals, higher supervisory/technicians' 2    
#> # ℹ 56,742 more rows
…
      self_employed,
      emplno,
      label = FALSE,
      full_method = FALSE
    ),
    esec_simple_label = isco88com_to_esec(
      isco88com_three,
      is_supervisor,
      self_employed,
      emplno,
      label = TRUE,
      full_method = FALSE
    )
  )
#> # A tibble: 56,752 × 2
#>    esec_simple esec_simple_label                                         
#>    <chr>       <chr>                                                     
#>  1 2           'Lower mgrs/professionals, higher supervisory/technicians'
#>  2 3           'Intermediate occupations'                                
#>  3 1           'Large employers, higher mgrs/professionals'              
#>  4 2           'Lower mgrs/professionals, higher supervisory/technicians'
#>  5 8           'Lower technical'                                         
#>  6 7           'Lower sales and service'                                 
#>  7 NA          NA                                                        
#>  8 1           'Large employers, higher mgrs/professionals'              
#>  9 3           'Intermediate occupations'                                
#> 10 2           'Lower mgrs/professionals, higher supervisory/technicians'
#> # ℹ 56,742 more rows
…
