Translates 2-digit ISCO08 to ESEG. — isco08_to_eseg • DIGCLASS
…
      work_status,
      main_activity,
      agea,
      type = "two-digit"
    ),
    eseg_label = isco08_to_eseg(
      isco08_two,
      work_status,
      main_activity,
      agea,
      type = "two-digit",
      label = TRUE
    )
  )
#> # A tibble: 48,285 × 3
#>    isco08_two eseg  eseg_label                                                  
#>    <chr>      <chr> <chr>                                                       
#>  1 5400       4.2   42 Technicians, clerical support, services and sales self-e…
#>  2 1300       1.3   13 Higher managerial employees                              
#>  3 3100       3.1   31 Science, engineering and ICT technicians and associated …
#>  4 7100       6.1   61 Building and related trade employees                     
#>  5 6100       7.4   74 Agricultural employees                                   
#>  6 6100       7.4   74 Agricultural employees                                   
#>  7 9300       NA    NA                                                          
#>  8 1300       1.3   13 Higher managerial employees                              
#>  9 1300       1.1   11 Higher managerial self-employed                          
#> 10 6100       7.4   74 Agricultural employees                                   
#> # ℹ 48,275 more rows
…
      work_status,
      main_activity,
      agea,
      type = "one-digit"
    ),
    eseg_label = isco08_to_eseg(
      isco08_two,
      work_status,
      main_activity,
      agea,
      type = "one-digit",
      label = TRUE
    )
  )
#> # A tibble: 48,285 × 3
#>    isco08_two eseg  eseg_label                                          
#>    <chr>      <chr> <chr>                                               
#>  1 5400       4     4 Small entrepreneur                                
#>  2 1300       1     1 Manager                                           
#>  3 3100       3     3 Technicians and associated professeional employees
#>  4 7100       6     6 Industrial skilled employees                      
#>  5 6100       7     7 Less skilled employees                            
#>  6 6100       7     7 Less skilled employees                            
#>  7 9300       NA    NA                                                  
#>  8 1300       1     1 Manager                                           
#>  9 1300       1     1 Manager                                           
#> 10 6100       7     7 Less skilled employees                            
#> # ℹ 48,275 more rows
…
