Case study: Exploring Occupations Using The International Social Survey Programme (ISSP) • DIGCLASS
…
The ISSP contains data for the ISCO08 class schema as well as
additional information on the working conditions of respondents. The
DIGCLASS package contains a copy of the 2020 edition of the
survey for these variables. I’ve deliberately left this data as it comes
from the ISSP, meaning that we need to do a real-world cleanup of the
data as well as cleaning up the ISCO08 variable. Let’s look at how this
data looks like:

issp
#> # A tibble: 21,718 × 4
#>    isco08                                             emprel   nsup     wrksup  
#>    <dbl+lbl>                                          <dbl+lb> <dbl+lb> <dbl+lb>
#>  1 2430 [2430. Sales, marketing and public relations…  1 [1. … -4 [-4.…  2 [2. …
#>  2 3115 [3115. Mechanical engineering technicians]     1 [1. … -4 [-4.…  2 [2. …
#>  3 6130 [6130. Mixed crop and animal producers]        2 [2. … -4 [-4.…  2 [2. …
#>  4 4120 [4120. Secretaries (general)]                  1 [1. … -4 [-4.…  2 [2. …
#>  5 7531 [7531. Tailors, dressmakers, furriers and ha…  1 [1. … -4 [-4.…  2 [2. …
#>  6 4211 [4211. Bank tellers and related clerks]        1 [1. … -4 [-4.…  2 [2. …
#>  7 4211 [4211. Bank tellers and related clerks]        1 [1. …  8        1 [1. …
#>  8   -4 [-4. NAP (Code 3 in WORK)]                    -4 [-4.… -4 [-4.… -4 [-4.…
#>  9 9510 [9510. Street and related service workers]     1 [1. … -4 [-4.…  2 [2. …
#> 10 7126 [7126. Plumbers and pipe fitters]              3 [3. …  4        1 [1. …
#> # ℹ 21,708 more rows
…
For the employee relationship, we have values -9 and -4 which should
not be there. They measure whether the question doesn’t apply and
whether there was no answer. Let’s look at nsup and
wrksup:

issp %>%
  count(nsup)
#> # A tibble: 134 × 2
#>    nsup                                    n
#>    <dbl+lbl>                           <int>
#>  1 -9 [-9. No answer]                   1196
#>  2 -4 [-4. NAP (code 2, -4 in WRKSUP)] 15678
#>  3  1 [1. 1 employee]                    405
#>  4  2                                    501
#>  5  3                                    475
#>  6  4                                    397
#>  7  5                                    466
#>  8  6                                    286
#>  9  7                                    145
#> 10  8                                    203
#> # ℹ 124 more rows
…
After this warning, it also mentions that certain occupations have
less than 4 digits. It assumes these are always ISCO
occupations that need a preceding 0 in front. It takes the
liberty of converting these automatically by appending the 0’s in front.
For more details on how this works and how to fix these values yourself,
the message points the user to the link https://cimentadaj.github.io/socialclasses/articles/repairing_isco_input.html.

As you can see yourself, despite these messages, these were all
warnings and information messages. It translated everything correctly to
ISCO88:

issp %>% select(isco88)
#> # A tibble: 21,718 × 1
#>    isco88
#>    <chr> 
#>  1 2410  
#>  2 3115  
#>  3 6130  
#>  4 4115  
#>  5 7434  
#>  6 4211  
#>  7 4211  
#>  8 NA    
#>  9 9120  
#> 10 7136  
#> # ℹ 21,708 more rows
…
issp <-
  issp %>%
  mutate(
    is_supervisor = ifelse(wrksup == 2, 0, wrksup),
    self_employed = case_when(
      emprel %in% c(1, 5) ~ 0,
      emprel %in% 2:4 ~ 1,
      TRUE ~ NA
    ),
    n_employees = ifelse(is_supervisor == 0, 0, nsup)
  ) %>%
  select(isco08, is_supervisor, self_employed, n_employees)

issp
#> # A tibble: 21,718 × 4
#>    isco08                                is_supervisor self_employed n_employees
#>    <dbl+lbl>                                     <dbl>         <dbl>       <dbl>
#>  1 2430 [2430. Sales, marketing and pub…             0             0           0
#>  2 3115 [3115. Mechanical engineering t…             0             0           0
#>  3 6130 [6130. Mixed crop and animal pr…             0             1           0
#>  4 4120 [4120. Secretaries (general)]                0             0           0
#>  5 7531 [7531. Tailors, dressmakers, fu…             0             0           0
#>  6 4211 [4211. Bank tellers and related…             0             0           0
#>  7 4211 [4211. Bank tellers and related…             1             0           8
#>  8   NA                                             NA            NA          NA
#>  9 9510 [9510. Street and related servi…             0             0           0
#> 10 7126 [7126. Plumbers and pipe fitter…             1             1           4
#> # ℹ 21,708 more rows
…
issp <-
  issp %>%
  mutate(
    isco08 = repair_isco(isco08),
    isco08_three = isco08_swap(isco08, from = 4, to = 3)
  )
#> ! ISCO variable is not a character. Beware that numeric ISCO variables possibly contain lost data. See https://cimentadaj.github.io/socialclasses/articles/repairing_isco_input.html for more details. Converting to a character vector.
#> ℹ ISCO variable has occupations with digits less than 4. Converting to 4 digits.
#> • Converted `110` to `0110`
#> • Converted `310` to `0310`
#> • Converted `210` to `0210`

issp
#> # A tibble: 21,718 × 5
#>    isco08 is_supervisor self_employed n_employees isco08_three
#>    <chr>          <dbl>         <dbl>       <dbl> <chr>       
#>  1 2430               0             0           0 2430        
#>  2 3115               0             0           0 3110        
#>  3 6130               0             1           0 6130        
#>  4 4120               0             0           0 4120        
#>  5 7531               0             0           0 7530        
#>  6 4211               0             0           0 4210        
#>  7 4211               1             0           8 4210        
#>  8 NA                NA            NA          NA NA          
#>  9 9510               0             0           0 9510        
#> 10 7126               1             1           4 7120        
#> # ℹ 21,708 more rows

We shouldn’t see any more warning messages. Now that we translate
isco08 to isco08_three (you can see that
isco08_three always ends with a 0, because
we’ve translated it to 3-digit codes). Let’s use
isco08_to_msec to translate it:

issp <-
  issp %>%
  mutate(
    msec = isco08_to_msec(isco08_three, is_supervisor, self_employed, n_employees)
  )

issp
#> # A tibble: 21,718 × 6
#>    isco08 is_supervisor self_employed n_employees isco08_three msec 
#>    <chr>          <dbl>         <dbl>       <dbl> <chr>        <chr>
#>  1 2430               0             0           0 2430         23   
#>  2 3115               0             0           0 3110         31   
#>  3 6130               0             1           0 6130         41   
#>  4 4120               0             0           0 4120         51   
#>  5 7531               0             0           0 7530         62   
#>  6 4211               0             0           0 4210         52   
#>  7 4211               1             0           8 4210         59   
#>  8 NA                NA            NA          NA NA           NA   
#>  9 9510               0             0           0 9510         73   
#> 10 7126               1             1           4 7120         43   
#> # ℹ 21,708 more rows

There we go. We now see an msec column that contains the
translation. All translation functions in DIGCLASS that
have labels contain an argument called label that if set to
TRUE will return the labels instead of the numbers. Here’s
an example with msec:

issp %>%
  mutate(
    msec = isco08_to_msec(isco08_three, is_supervisor, self_employed, n_employees, label = TRUE)
  ) %>%
  count(msec)
#> # A tibble: 39 × 2
#>    msec                                       n
#>    <chr>                                  <int>
#>  1 Agricultural Employees                   325
#>  2 Agricultural Self-Employed               406
#>  3 Associate Professionals                  254
#>  4 Blue-Collar Employees                   1159
#>  5 Building and Related Trades Employees    365
#>  6 Business Associate Professionals         314
#>  7 Business Professionals                   758
#>  8 Cleaners and Helpers                     325
#>  9 Craft and Related Trades Self-Employed   547
#> 10 Customer Service Clerks                  414
#> # ℹ 29 more rows
…
issp %>%
  mutate(
    isco88 = isco08_to_isco88(isco08),
    isco88com = isco88_to_isco88com(isco88),
    isco88com_three = isco88_swap(isco88com, from = 4, to = 3),
    msec = isco88com_to_msec(isco88com_three, is_supervisor, self_employed, n_employees, label = TRUE)
  ) %>%
  count(msec)
#> # A tibble: 38 × 2
#>    msec                                       n
#>    <chr>                                  <int>
#>  1 Agricultural Employees                   381
#>  2 Agricultural Self-Employed               345
#>  3 Associate Professionals                   33
#>  4 Blue-Collar Employees                   1214
#>  5 Building and Related Trades Employees    664
#>  6 Business Associate Professionals         157
#>  7 Business Professionals                   397
#>  8 Cleaners and Helpers                     947
#>  9 Craft and Related Trades Self-Employed   592
#> 10 Customer Service Clerks                  464
#> # ℹ 28 more rows
…
