Exploring translations between social classes • DIGCLASS
…
library(DIGCLASS)
library(dplyr)
#> 
#> Attaching package: 'dplyr'
#> The following objects are masked from 'package:stats':
#> 
#>     filter, lag
#> The following objects are masked from 'package:base':
#> 
#>     intersect, setdiff, setequal, union
ess
#> # A tibble: 56,752 × 5
#>    isco68 isco88 isco08 emplno self_employed
#>    <chr>  <chr>  <chr>   <dbl>         <dbl>
#>  1 0140   3111   3111        0             0
#>  2 3210   3431   4120        0             0
#>  3 2119   1210   1120        0             0
#>  4 1320   2320   2330        0             0
#>  5 8550   7137   7411        0             0
#>  6 5401   5131   5311        0             0
#>  7 NA     NA     NA          0             0
#>  8 1593   2419   2432        0             0
#>  9 1930   3460   2635        0             0
#> 10 1950   2444   2643        0             0
#> # … with 56,742 more rows
…
# Translate `isco68` to many class schemas
ess %>%
  select(isco68, self_employed, emplno) %>%
  transmute(
    isco68,
    isco88 = isco68_to_isco88(isco68, label = labs),
    isco08 = isco68_to_isco08(isco68, label = labs),
    siops = isco68_to_siops(isco68),
    isei = isco68_to_isei(isco68),
    egp = isco68_to_egp(isco68, self_employed, emplno, label = labs),
    egp11 = isco68_to_egp11(isco68, self_employed, emplno, label = labs)
  )
#> # A tibble: 56,752 × 7
#>    isco68 isco88 isco08 siops isei  egp   egp11
#>    <chr>  <chr>  <chr>  <chr> <chr> <chr> <chr>
#>  1 0140   3111   3111   46    47    2     2    
#>  2 3210   4111   4120   48    55    3     3    
#>  3 2119   1210   1120   75    69    1     1    
#>  4 1320   2321   2330   60    71    2     2    
#>  5 8550   7137   7411   44    40    8     8    
#>  6 5401   5131   5311   23    24    9     9    
#>  7 NA     NA     NA     NA    NA    NA    NA   
#>  8 1593   2419   2432   57    66    2     2    
#>  9 1930   2446   2635   52    54    2     2    
#> 10 1950   2444   2643   62    54    2     2    
#> # … with 56,742 more rows
…
ess %>%
  select(isco88, self_employed, emplno) %>%
  transmute(
    isco88,
    isco68 = isco88_to_isco68(isco88, label = labs),
    isco88com = isco88_to_isco88com(isco88, label = labs),
    isco08 = isco88_to_isco08(isco88, label = labs),
    siops = isco88_to_siops(isco88),
    isei = isco88_to_isei(isco88),
    mps = isco88_to_mps(isco88),
    egp = isco88_to_egp(isco88, self_employed, emplno, label = labs),
    egp11 = isco88_to_egp11(isco88, self_employed, emplno, label = labs),
    oesch = isco88_to_oesch(isco88, self_employed, emplno, label = labs)
  )
#> # A tibble: 56,752 × 10
#>    isco88 isco68 isco88com isco08 siops isei  mps   egp   egp11 oesch
#>    <chr>  <chr>  <chr>     <chr>  <chr> <chr> <chr> <chr> <chr> <chr>
#>  1 3111   0140   3111      3111   46    45    69.3  2     2     6    
#>  2 3431   3210   3431      3343   53    54    73.2  2     2     10   
#>  3 1210   2119   1210      1120   70    70    150.8 1     1     9    
#>  4 2320   1320   2320      2330   60    69    149.2 2     2     13   
#>  5 7137   8550   7137      7411   44    37    56    8     8     7    
#>  6 5131   5401   5131      5311   23    25    56.9  3     4     15   
#>  7 NA     NA     NA        NA     NA    NA    NA    NA    NA    NA   
#>  8 2419   1593   2419      2400   57    69    126.7 2     2     9    
#>  9 3460   1930   3460      3412   49    43    88.2  3     3     14   
#> 10 2444   1950   2444      2643   62    65    117.2 2     2     14   
#> # … with 56,742 more rows
…
labs <- TRUE

ess %>%
  select(isco08, self_employed, emplno) %>%
  transmute(
    isco08,
    isco88 = isco08_to_isco88(isco08, label = labs),
    siops = isco08_to_siops(isco08),
    isei = isco08_to_isei(isco08),
    oesch = isco08_to_oesch(isco08, self_employed, emplno, label = labs)
  )
#> # A tibble: 56,752 × 5
#>    isco08 isco88                                            siops isei  oesch   
#>    <chr>  <chr>                                             <chr> <chr> <chr>   
#>  1 3111   'Chemical and physical science technicians'       46.00 49    'Techni…
#>  2 4120   'Secretaries'                                     50.87 42    'Skille…
#>  3 1120   'Directors and chief executives'                  64.51 70    'Higher…
#>  4 2330   'Secondary education teaching professionals'      62.63 71    'Socio-…
#>  5 7411   'Building and related electricians'               44.01 43    'Skille…
#>  6 5311   'Child-care workers'                              23.00 26    'Skille…
#>  7 NA     NA                                                NA    NA    NA      
#>  8 2432   'Business professionals not elsewhere classified' 57.00 64    'Higher…
#>  9 2635   'Social work professionals'                       53.89 59    'Socio-…
#> 10 2643   'Philologists, translators and interpreters'      65.66 68    'Socio-…
#> # … with 56,742 more rows
…
