Translating between hierarchies for ISCO68, ISCO88 and ISCO08 • DIGCLASS
…
ess
#> # A tibble: 56,752 × 7
#>    isco68 isco88 isco88com isco08 emplno self_employed is_supervisor
#>    <chr>  <chr>  <chr>     <chr>   <dbl>         <dbl>         <dbl>
#>  1 0140   3111   3111      3111        0             0             1
#>  2 3210   3431   3431      4120        0             0             0
#>  3 2119   1210   1210      1120        0             0             1
#>  4 1320   2320   2320      2330        0             0             0
#>  5 8550   7137   7137      7411        0             0             1
#>  6 5401   5131   5131      5311        0             0             0
#>  7 NA     NA     NA        NA          0             0             0
#>  8 1593   2419   2419      2432        0             0             1
#>  9 1930   3460   3460      2635        0             0             0
#> 10 1950   2444   2444      2643        0             0             0
#> # ℹ 56,742 more rows

All three ISCO variables are in four digits but we can convert them
to three digits:

ess %>%
  transmute(
    isco88,
    isco88_three = isco88_swap(isco88, from = 4, to = 3)
  )
#> # A tibble: 56,752 × 2
#>    isco88 isco88_three
#>    <chr>  <chr>       
#>  1 3111   3110        
#>  2 3431   3430        
#>  3 1210   1210        
#>  4 2320   2320        
#>  5 7137   7130        
#>  6 5131   5130        
#>  7 NA     NA          
#>  8 2419   2410        
#>  9 3460   3460        
#> 10 2444   2440        
#> # ℹ 56,742 more rows

As you can see, the three digit translation always has a zero,
meaning that it was translated into a broder group. We can do the same
for an even broader group, translating from 4 to 2 digits:

ess %>%
  transmute(
    isco08,
    isco08_two = isco08_swap(isco08, from = 4, to = 2)
  )
#> # A tibble: 56,752 × 2
#>    isco08 isco08_two
#>    <chr>  <chr>     
#>  1 3111   3100      
#>  2 4120   4100      
#>  3 1120   1100      
#>  4 2330   2300      
#>  5 7411   7400      
#>  6 5311   5300      
#>  7 NA     NA        
#>  8 2432   2400      
#>  9 2635   2600      
#> 10 2643   2600      
#> # ℹ 56,742 more rows
…
That’s because we can’t translate a more broader group into a finer
occupation because it could be many specific occupation within a broder
group. Finally, do note that for ISCO68, there are some 1 digit groups
missing (0000 and 1000 don’t have a broader category), so when you
translate from any digit to the 1 digit in ISCO68 you might some missing
values for occupation within the major group 0000 and 1000:

ess %>%
  transmute(
    isco68,
    isco68_one = isco68_swap(isco68, from = 4, to = 1)
  )
#> # A tibble: 56,752 × 2
#>    isco68 isco68_one
#>    <chr>  <chr>     
#>  1 0140   NA        
#>  2 3210   3000      
#>  3 2119   2000      
#>  4 1320   1000      
#>  5 8550   8000      
#>  6 5401   5000      
#>  7 NA     NA        
#>  8 1593   1000      
#>  9 1930   1000      
#> 10 1950   1000      
#> # ℹ 56,742 more rows
…
